quartus_proj/simple_1/simulation/qsim/simple_1.msim.vcd
$comment
	File created using the following command:
		vcd file simple_1.msim.vcd -direction
$end
$date
	Tue Nov 15 14:47:03 2022
$end
$version
	ModelSim Version 2020.1
$end
$timescale
	1ps
$end

$scope module simple_3_vhd_vec_tst $end
$var wire 1 ! clk $end
$var wire 1 " pix1 [7] $end
$var wire 1 # pix1 [6] $end
$var wire 1 $ pix1 [5] $end
$var wire 1 % pix1 [4] $end
$var wire 1 & pix1 [3] $end
$var wire 1 ' pix1 [2] $end
$var wire 1 ( pix1 [1] $end
$var wire 1 ) pix1 [0] $end
$var wire 1 * pix1_mean [7] $end
$var wire 1 + pix1_mean [6] $end
$var wire 1 , pix1_mean [5] $end
$var wire 1 - pix1_mean [4] $end
$var wire 1 . pix1_mean [3] $end
$var wire 1 / pix1_mean [2] $end
$var wire 1 0 pix1_mean [1] $end
$var wire 1 1 pix1_mean [0] $end
$var wire 1 2 pix2 [7] $end
$var wire 1 3 pix2 [6] $end
$var wire 1 4 pix2 [5] $end
$var wire 1 5 pix2 [4] $end
$var wire 1 6 pix2 [3] $end
$var wire 1 7 pix2 [2] $end
$var wire 1 8 pix2 [1] $end
$var wire 1 9 pix2 [0] $end
$var wire 1 : pix2_mean [7] $end
$var wire 1 ; pix2_mean [6] $end
$var wire 1 < pix2_mean [5] $end
$var wire 1 = pix2_mean [4] $end
$var wire 1 > pix2_mean [3] $end
$var wire 1 ? pix2_mean [2] $end
$var wire 1 @ pix2_mean [1] $end
$var wire 1 A pix2_mean [0] $end
$var wire 1 B pix3 [7] $end
$var wire 1 C pix3 [6] $end
$var wire 1 D pix3 [5] $end
$var wire 1 E pix3 [4] $end
$var wire 1 F pix3 [3] $end
$var wire 1 G pix3 [2] $end
$var wire 1 H pix3 [1] $end
$var wire 1 I pix3 [0] $end
$var wire 1 J pix3_mean [7] $end
$var wire 1 K pix3_mean [6] $end
$var wire 1 L pix3_mean [5] $end
$var wire 1 M pix3_mean [4] $end
$var wire 1 N pix3_mean [3] $end
$var wire 1 O pix3_mean [2] $end
$var wire 1 P pix3_mean [1] $end
$var wire 1 Q pix3_mean [0] $end
$var wire 1 R pix4 [7] $end
$var wire 1 S pix4 [6] $end
$var wire 1 T pix4 [5] $end
$var wire 1 U pix4 [4] $end
$var wire 1 V pix4 [3] $end
$var wire 1 W pix4 [2] $end
$var wire 1 X pix4 [1] $end
$var wire 1 Y pix4 [0] $end
$var wire 1 Z pix4_mean [7] $end
$var wire 1 [ pix4_mean [6] $end
$var wire 1 \ pix4_mean [5] $end
$var wire 1 ] pix4_mean [4] $end
$var wire 1 ^ pix4_mean [3] $end
$var wire 1 _ pix4_mean [2] $end
$var wire 1 ` pix4_mean [1] $end
$var wire 1 a pix4_mean [0] $end

$scope module i1 $end
$var wire 1 b gnd $end
$var wire 1 c vcc $end
$var wire 1 d unknown $end
$var wire 1 e devoe $end
$var wire 1 f devclrn $end
$var wire 1 g devpor $end
$var wire 1 h ww_devoe $end
$var wire 1 i ww_devclrn $end
$var wire 1 j ww_devpor $end
$var wire 1 k ww_pix1_mean [7] $end
$var wire 1 l ww_pix1_mean [6] $end
$var wire 1 m ww_pix1_mean [5] $end
$var wire 1 n ww_pix1_mean [4] $end
$var wire 1 o ww_pix1_mean [3] $end
$var wire 1 p ww_pix1_mean [2] $end
$var wire 1 q ww_pix1_mean [1] $end
$var wire 1 r ww_pix1_mean [0] $end
$var wire 1 s ww_clk $end
$var wire 1 t ww_pix1 [7] $end
$var wire 1 u ww_pix1 [6] $end
$var wire 1 v ww_pix1 [5] $end
$var wire 1 w ww_pix1 [4] $end
$var wire 1 x ww_pix1 [3] $end
$var wire 1 y ww_pix1 [2] $end
$var wire 1 z ww_pix1 [1] $end
$var wire 1 { ww_pix1 [0] $end
$var wire 1 | ww_pix2 [7] $end
$var wire 1 } ww_pix2 [6] $end
$var wire 1 ~ ww_pix2 [5] $end
$var wire 1 !! ww_pix2 [4] $end
$var wire 1 "! ww_pix2 [3] $end
$var wire 1 #! ww_pix2 [2] $end
$var wire 1 $! ww_pix2 [1] $end
$var wire 1 %! ww_pix2 [0] $end
$var wire 1 &! ww_pix3 [7] $end
$var wire 1 '! ww_pix3 [6] $end
$var wire 1 (! ww_pix3 [5] $end
$var wire 1 )! ww_pix3 [4] $end
$var wire 1 *! ww_pix3 [3] $end
$var wire 1 +! ww_pix3 [2] $end
$var wire 1 ,! ww_pix3 [1] $end
$var wire 1 -! ww_pix3 [0] $end
$var wire 1 .! ww_pix4 [7] $end
$var wire 1 /! ww_pix4 [6] $end
$var wire 1 0! ww_pix4 [5] $end
$var wire 1 1! ww_pix4 [4] $end
$var wire 1 2! ww_pix4 [3] $end
$var wire 1 3! ww_pix4 [2] $end
$var wire 1 4! ww_pix4 [1] $end
$var wire 1 5! ww_pix4 [0] $end
$var wire 1 6! ww_pix2_mean [7] $end
$var wire 1 7! ww_pix2_mean [6] $end
$var wire 1 8! ww_pix2_mean [5] $end
$var wire 1 9! ww_pix2_mean [4] $end
$var wire 1 :! ww_pix2_mean [3] $end
$var wire 1 ;! ww_pix2_mean [2] $end
$var wire 1 <! ww_pix2_mean [1] $end
$var wire 1 =! ww_pix2_mean [0] $end
$var wire 1 >! ww_pix3_mean [7] $end
$var wire 1 ?! ww_pix3_mean [6] $end
$var wire 1 @! ww_pix3_mean [5] $end
$var wire 1 A! ww_pix3_mean [4] $end
$var wire 1 B! ww_pix3_mean [3] $end
$var wire 1 C! ww_pix3_mean [2] $end
$var wire 1 D! ww_pix3_mean [1] $end
$var wire 1 E! ww_pix3_mean [0] $end
$var wire 1 F! ww_pix4_mean [7] $end
$var wire 1 G! ww_pix4_mean [6] $end
$var wire 1 H! ww_pix4_mean [5] $end
$var wire 1 I! ww_pix4_mean [4] $end
$var wire 1 J! ww_pix4_mean [3] $end
$var wire 1 K! ww_pix4_mean [2] $end
$var wire 1 L! ww_pix4_mean [1] $end
$var wire 1 M! ww_pix4_mean [0] $end
$var wire 1 N! \~QUARTUS_CREATED_GND~I_combout\ $end
$var wire 1 O! \clk~input_o\ $end
$var wire 1 P! \clk~inputCLKENA0_outclk\ $end
$var wire 1 Q! \pix4[7]~input_o\ $end
$var wire 1 R! \inst1|inst5[7]~feeder_combout\ $end
$var wire 1 S! \pix3[7]~input_o\ $end
$var wire 1 T! \inst1|inst4[7]~feeder_combout\ $end
$var wire 1 U! \pix3[6]~input_o\ $end
$var wire 1 V! \inst1|inst4[6]~feeder_combout\ $end
$var wire 1 W! \pix4[6]~input_o\ $end
$var wire 1 X! \inst1|inst5[6]~feeder_combout\ $end
$var wire 1 Y! \pix4[5]~input_o\ $end
$var wire 1 Z! \pix3[5]~input_o\ $end
$var wire 1 [! \inst1|inst4[5]~feeder_combout\ $end
$var wire 1 \! \pix3[4]~input_o\ $end
$var wire 1 ]! \inst1|inst4[4]~feeder_combout\ $end
$var wire 1 ^! \pix4[4]~input_o\ $end
$var wire 1 _! \inst1|inst5[4]~feeder_combout\ $end
$var wire 1 `! \pix3[3]~input_o\ $end
$var wire 1 a! \pix4[3]~input_o\ $end
$var wire 1 b! \inst1|inst5[3]~feeder_combout\ $end
$var wire 1 c! \pix4[2]~input_o\ $end
$var wire 1 d! \pix3[2]~input_o\ $end
$var wire 1 e! \pix4[1]~input_o\ $end
$var wire 1 f! \inst1|inst5[1]~feeder_combout\ $end
$var wire 1 g! \pix3[1]~input_o\ $end
$var wire 1 h! \pix4[0]~input_o\ $end
$var wire 1 i! \inst1|inst5[0]~feeder_combout\ $end
$var wire 1 j! \pix3[0]~input_o\ $end
$var wire 1 k! \inst1|inst4[0]~feeder_combout\ $end
$var wire 1 l! \inst1|inst1|Add0~30\ $end
$var wire 1 m! \inst1|inst1|Add0~26\ $end
$var wire 1 n! \inst1|inst1|Add0~22\ $end
$var wire 1 o! \inst1|inst1|Add0~18\ $end
$var wire 1 p! \inst1|inst1|Add0~14\ $end
$var wire 1 q! \inst1|inst1|Add0~10\ $end
$var wire 1 r! \inst1|inst1|Add0~6\ $end
$var wire 1 s! \inst1|inst1|Add0~1_sumout\ $end
$var wire 1 t! \pix1[7]~input_o\ $end
$var wire 1 u! \pix2[7]~input_o\ $end
$var wire 1 v! \pix1[6]~input_o\ $end
$var wire 1 w! \pix2[6]~input_o\ $end
$var wire 1 x! \pix2[5]~input_o\ $end
$var wire 1 y! \pix1[5]~input_o\ $end
$var wire 1 z! \pix1[4]~input_o\ $end
$var wire 1 {! \pix2[4]~input_o\ $end
$var wire 1 |! \pix1[3]~input_o\ $end
$var wire 1 }! \pix2[3]~input_o\ $end
$var wire 1 ~! \pix1[2]~input_o\ $end
$var wire 1 !" \pix2[2]~input_o\ $end
$var wire 1 "" \pix2[1]~input_o\ $end
$var wire 1 #" \pix1[1]~input_o\ $end
$var wire 1 $" \pix1[0]~input_o\ $end
$var wire 1 %" \pix2[0]~input_o\ $end
$var wire 1 &" \inst1|inst|Add0~30\ $end
$var wire 1 '" \inst1|inst|Add0~26\ $end
$var wire 1 (" \inst1|inst|Add0~22\ $end
$var wire 1 )" \inst1|inst|Add0~18\ $end
$var wire 1 *" \inst1|inst|Add0~14\ $end
$var wire 1 +" \inst1|inst|Add0~10\ $end
$var wire 1 ," \inst1|inst|Add0~6\ $end
$var wire 1 -" \inst1|inst|Add0~1_sumout\ $end
$var wire 1 ." \inst1|inst|Add0~5_sumout\ $end
$var wire 1 /" \inst1|inst1|Add0~5_sumout\ $end
$var wire 1 0" \inst1|inst1|Add0~9_sumout\ $end
$var wire 1 1" \inst1|inst|Add0~9_sumout\ $end
$var wire 1 2" \inst1|inst1|Add0~13_sumout\ $end
$var wire 1 3" \inst1|inst|Add0~13_sumout\ $end
$var wire 1 4" \inst1|inst7[4]~feeder_combout\ $end
$var wire 1 5" \inst1|inst|Add0~17_sumout\ $end
$var wire 1 6" \inst1|inst1|Add0~17_sumout\ $end
$var wire 1 7" \inst1|inst1|Add0~21_sumout\ $end
$var wire 1 8" \inst1|inst|Add0~21_sumout\ $end
$var wire 1 9" \inst1|inst7[2]~feeder_combout\ $end
$var wire 1 :" \inst1|inst1|Add0~25_sumout\ $end
$var wire 1 ;" \inst1|inst|Add0~25_sumout\ $end
$var wire 1 <" \inst1|inst7[1]~feeder_combout\ $end
$var wire 1 =" \inst1|inst|Add0~29_sumout\ $end
$var wire 1 >" \inst1|inst7[0]~feeder_combout\ $end
$var wire 1 ?" \inst1|inst1|Add0~29_sumout\ $end
$var wire 1 @" \inst1|inst2|Add0~30\ $end
$var wire 1 A" \inst1|inst2|Add0~26\ $end
$var wire 1 B" \inst1|inst2|Add0~22\ $end
$var wire 1 C" \inst1|inst2|Add0~18\ $end
$var wire 1 D" \inst1|inst2|Add0~14\ $end
$var wire 1 E" \inst1|inst2|Add0~10\ $end
$var wire 1 F" \inst1|inst2|Add0~6\ $end
$var wire 1 G" \inst1|inst2|Add0~1_sumout\ $end
$var wire 1 H" \inst1|inst2|Add0~5_sumout\ $end
$var wire 1 I" \inst1|inst2|Add0~9_sumout\ $end
$var wire 1 J" \inst1|inst2|Add0~13_sumout\ $end
$var wire 1 K" \inst1|inst2|Add0~17_sumout\ $end
$var wire 1 L" \inst1|inst2|Add0~21_sumout\ $end
$var wire 1 M" \inst1|inst2|Add0~25_sumout\ $end
$var wire 1 N" \inst1|inst2|Add0~29_sumout\ $end
$var wire 1 O" \inst|inst3|result[0]~30\ $end
$var wire 1 P" \inst|inst3|result[0]~31\ $end
$var wire 1 Q" \inst|inst3|result[1]~26\ $end
$var wire 1 R" \inst|inst3|result[1]~27\ $end
$var wire 1 S" \inst|inst3|result[2]~22\ $end
$var wire 1 T" \inst|inst3|result[2]~23\ $end
$var wire 1 U" \inst|inst3|result[3]~18\ $end
$var wire 1 V" \inst|inst3|result[3]~19\ $end
$var wire 1 W" \inst|inst3|result[4]~14\ $end
$var wire 1 X" \inst|inst3|result[4]~15\ $end
$var wire 1 Y" \inst|inst3|result[5]~10\ $end
$var wire 1 Z" \inst|inst3|result[5]~11\ $end
$var wire 1 [" \inst|inst3|result[6]~6\ $end
$var wire 1 \" \inst|inst3|result[6]~7\ $end
$var wire 1 ]" \inst|inst3|result[7]~1_sumout\ $end
$var wire 1 ^" \inst|inst3|result[6]~5_sumout\ $end
$var wire 1 _" \inst|inst3|result[5]~9_sumout\ $end
$var wire 1 `" \inst|inst3|result[4]~13_sumout\ $end
$var wire 1 a" \inst|inst10[4]~feeder_combout\ $end
$var wire 1 b" \inst|inst3|result[3]~17_sumout\ $end
$var wire 1 c" \inst|inst10[3]~feeder_combout\ $end
$var wire 1 d" \inst|inst3|result[2]~21_sumout\ $end
$var wire 1 e" \inst|inst3|result[1]~25_sumout\ $end
$var wire 1 f" \inst|inst3|result[0]~29_sumout\ $end
$var wire 1 g" \inst1|inst10[7]~feeder_combout\ $end
$var wire 1 h" \inst1|inst10[4]~feeder_combout\ $end
$var wire 1 i" \inst1|inst10[3]~feeder_combout\ $end
$var wire 1 j" \inst2|inst10[6]~feeder_combout\ $end
$var wire 1 k" \inst2|inst10[4]~feeder_combout\ $end
$var wire 1 l" \inst2|inst10[3]~feeder_combout\ $end
$var wire 1 m" \inst3|inst10[4]~feeder_combout\ $end
$var wire 1 n" \inst3|inst10[3]~feeder_combout\ $end
$var wire 1 o" \inst1|inst6\ [7] $end
$var wire 1 p" \inst1|inst6\ [6] $end
$var wire 1 q" \inst1|inst6\ [5] $end
$var wire 1 r" \inst1|inst6\ [4] $end
$var wire 1 s" \inst1|inst6\ [3] $end
$var wire 1 t" \inst1|inst6\ [2] $end
$var wire 1 u" \inst1|inst6\ [1] $end
$var wire 1 v" \inst1|inst6\ [0] $end
$var wire 1 w" \inst1|inst7\ [7] $end
$var wire 1 x" \inst1|inst7\ [6] $end
$var wire 1 y" \inst1|inst7\ [5] $end
$var wire 1 z" \inst1|inst7\ [4] $end
$var wire 1 {" \inst1|inst7\ [3] $end
$var wire 1 |" \inst1|inst7\ [2] $end
$var wire 1 }" \inst1|inst7\ [1] $end
$var wire 1 ~" \inst1|inst7\ [0] $end
$var wire 1 !# \inst1|inst9\ [7] $end
$var wire 1 "# \inst1|inst9\ [6] $end
$var wire 1 ## \inst1|inst9\ [5] $end
$var wire 1 $# \inst1|inst9\ [4] $end
$var wire 1 %# \inst1|inst9\ [3] $end
$var wire 1 &# \inst1|inst9\ [2] $end
$var wire 1 '# \inst1|inst9\ [1] $end
$var wire 1 (# \inst1|inst9\ [0] $end
$var wire 1 )# \inst1|inst8\ [7] $end
$var wire 1 *# \inst1|inst8\ [6] $end
$var wire 1 +# \inst1|inst8\ [5] $end
$var wire 1 ,# \inst1|inst8\ [4] $end
$var wire 1 -# \inst1|inst8\ [3] $end
$var wire 1 .# \inst1|inst8\ [2] $end
$var wire 1 /# \inst1|inst8\ [1] $end
$var wire 1 0# \inst1|inst8\ [0] $end
$var wire 1 1# \inst|inst10\ [7] $end
$var wire 1 2# \inst|inst10\ [6] $end
$var wire 1 3# \inst|inst10\ [5] $end
$var wire 1 4# \inst|inst10\ [4] $end
$var wire 1 5# \inst|inst10\ [3] $end
$var wire 1 6# \inst|inst10\ [2] $end
$var wire 1 7# \inst|inst10\ [1] $end
$var wire 1 8# \inst|inst10\ [0] $end
$var wire 1 9# \inst1|inst10\ [7] $end
$var wire 1 :# \inst1|inst10\ [6] $end
$var wire 1 ;# \inst1|inst10\ [5] $end
$var wire 1 <# \inst1|inst10\ [4] $end
$var wire 1 =# \inst1|inst10\ [3] $end
$var wire 1 ># \inst1|inst10\ [2] $end
$var wire 1 ?# \inst1|inst10\ [1] $end
$var wire 1 @# \inst1|inst10\ [0] $end
$var wire 1 A# \inst1|inst5\ [7] $end
$var wire 1 B# \inst1|inst5\ [6] $end
$var wire 1 C# \inst1|inst5\ [5] $end
$var wire 1 D# \inst1|inst5\ [4] $end
$var wire 1 E# \inst1|inst5\ [3] $end
$var wire 1 F# \inst1|inst5\ [2] $end
$var wire 1 G# \inst1|inst5\ [1] $end
$var wire 1 H# \inst1|inst5\ [0] $end
$var wire 1 I# \inst2|inst10\ [7] $end
$var wire 1 J# \inst2|inst10\ [6] $end
$var wire 1 K# \inst2|inst10\ [5] $end
$var wire 1 L# \inst2|inst10\ [4] $end
$var wire 1 M# \inst2|inst10\ [3] $end
$var wire 1 N# \inst2|inst10\ [2] $end
$var wire 1 O# \inst2|inst10\ [1] $end
$var wire 1 P# \inst2|inst10\ [0] $end
$var wire 1 Q# \inst1|inst4\ [7] $end
$var wire 1 R# \inst1|inst4\ [6] $end
$var wire 1 S# \inst1|inst4\ [5] $end
$var wire 1 T# \inst1|inst4\ [4] $end
$var wire 1 U# \inst1|inst4\ [3] $end
$var wire 1 V# \inst1|inst4\ [2] $end
$var wire 1 W# \inst1|inst4\ [1] $end
$var wire 1 X# \inst1|inst4\ [0] $end
$var wire 1 Y# \inst3|inst10\ [7] $end
$var wire 1 Z# \inst3|inst10\ [6] $end
$var wire 1 [# \inst3|inst10\ [5] $end
$var wire 1 \# \inst3|inst10\ [4] $end
$var wire 1 ]# \inst3|inst10\ [3] $end
$var wire 1 ^# \inst3|inst10\ [2] $end
$var wire 1 _# \inst3|inst10\ [1] $end
$var wire 1 `# \inst3|inst10\ [0] $end
$var wire 1 a# \ALT_INV_pix2[0]~input_o\ $end
$var wire 1 b# \ALT_INV_pix3[0]~input_o\ $end
$var wire 1 c# \ALT_INV_pix4[0]~input_o\ $end
$var wire 1 d# \ALT_INV_pix2[1]~input_o\ $end
$var wire 1 e# \ALT_INV_pix4[1]~input_o\ $end
$var wire 1 f# \ALT_INV_pix2[2]~input_o\ $end
$var wire 1 g# \ALT_INV_pix2[3]~input_o\ $end
$var wire 1 h# \ALT_INV_pix4[3]~input_o\ $end
$var wire 1 i# \ALT_INV_pix2[4]~input_o\ $end
$var wire 1 j# \ALT_INV_pix3[4]~input_o\ $end
$var wire 1 k# \ALT_INV_pix4[4]~input_o\ $end
$var wire 1 l# \ALT_INV_pix2[5]~input_o\ $end
$var wire 1 m# \ALT_INV_pix3[5]~input_o\ $end
$var wire 1 n# \ALT_INV_pix2[6]~input_o\ $end
$var wire 1 o# \ALT_INV_pix3[6]~input_o\ $end
$var wire 1 p# \ALT_INV_pix4[6]~input_o\ $end
$var wire 1 q# \ALT_INV_pix2[7]~input_o\ $end
$var wire 1 r# \ALT_INV_pix3[7]~input_o\ $end
$var wire 1 s# \ALT_INV_pix4[7]~input_o\ $end
$var wire 1 t# \ALT_INV_pix1[0]~input_o\ $end
$var wire 1 u# \ALT_INV_pix1[1]~input_o\ $end
$var wire 1 v# \ALT_INV_pix1[2]~input_o\ $end
$var wire 1 w# \ALT_INV_pix1[3]~input_o\ $end
$var wire 1 x# \ALT_INV_pix1[4]~input_o\ $end
$var wire 1 y# \ALT_INV_pix1[5]~input_o\ $end
$var wire 1 z# \ALT_INV_pix1[6]~input_o\ $end
$var wire 1 {# \ALT_INV_pix1[7]~input_o\ $end
$var wire 1 |# \inst1|ALT_INV_inst4\ [7] $end
$var wire 1 }# \inst1|ALT_INV_inst4\ [6] $end
$var wire 1 ~# \inst1|ALT_INV_inst4\ [5] $end
$var wire 1 !$ \inst1|ALT_INV_inst4\ [4] $end
$var wire 1 "$ \inst1|ALT_INV_inst4\ [3] $end
$var wire 1 #$ \inst1|ALT_INV_inst4\ [2] $end
$var wire 1 $$ \inst1|ALT_INV_inst4\ [1] $end
$var wire 1 %$ \inst1|ALT_INV_inst4\ [0] $end
$var wire 1 &$ \inst1|ALT_INV_inst5\ [7] $end
$var wire 1 '$ \inst1|ALT_INV_inst5\ [6] $end
$var wire 1 ($ \inst1|ALT_INV_inst5\ [5] $end
$var wire 1 )$ \inst1|ALT_INV_inst5\ [4] $end
$var wire 1 *$ \inst1|ALT_INV_inst5\ [3] $end
$var wire 1 +$ \inst1|ALT_INV_inst5\ [2] $end
$var wire 1 ,$ \inst1|ALT_INV_inst5\ [1] $end
$var wire 1 -$ \inst1|ALT_INV_inst5\ [0] $end
$var wire 1 .$ \inst1|ALT_INV_inst6\ [4] $end
$var wire 1 /$ \inst1|ALT_INV_inst6\ [3] $end
$var wire 1 0$ \inst1|ALT_INV_inst6\ [2] $end
$var wire 1 1$ \inst1|ALT_INV_inst6\ [1] $end
$var wire 1 2$ \inst1|ALT_INV_inst6\ [0] $end
$var wire 1 3$ \inst1|ALT_INV_inst7\ [7] $end
$var wire 1 4$ \inst1|ALT_INV_inst7\ [6] $end
$var wire 1 5$ \inst1|ALT_INV_inst7\ [5] $end
$var wire 1 6$ \inst1|ALT_INV_inst7\ [4] $end
$var wire 1 7$ \inst1|ALT_INV_inst7\ [3] $end
$var wire 1 8$ \inst1|ALT_INV_inst7\ [2] $end
$var wire 1 9$ \inst1|ALT_INV_inst7\ [1] $end
$var wire 1 :$ \inst1|ALT_INV_inst7\ [0] $end
$var wire 1 ;$ \inst1|ALT_INV_inst8\ [7] $end
$var wire 1 <$ \inst1|ALT_INV_inst8\ [6] $end
$var wire 1 =$ \inst1|ALT_INV_inst8\ [5] $end
$var wire 1 >$ \inst1|ALT_INV_inst8\ [4] $end
$var wire 1 ?$ \inst1|ALT_INV_inst8\ [3] $end
$var wire 1 @$ \inst1|ALT_INV_inst8\ [2] $end
$var wire 1 A$ \inst1|ALT_INV_inst8\ [1] $end
$var wire 1 B$ \inst1|ALT_INV_inst8\ [0] $end
$var wire 1 C$ \inst1|ALT_INV_inst9\ [7] $end
$var wire 1 D$ \inst1|ALT_INV_inst9\ [6] $end
$var wire 1 E$ \inst1|ALT_INV_inst9\ [5] $end
$var wire 1 F$ \inst1|ALT_INV_inst9\ [4] $end
$var wire 1 G$ \inst1|ALT_INV_inst9\ [3] $end
$var wire 1 H$ \inst1|ALT_INV_inst9\ [2] $end
$var wire 1 I$ \inst1|ALT_INV_inst9\ [1] $end
$var wire 1 J$ \inst1|ALT_INV_inst9\ [0] $end
$var wire 1 K$ \inst|inst3|ALT_INV_result[3]~17_sumout\ $end
$var wire 1 L$ \inst|inst3|ALT_INV_result[4]~13_sumout\ $end
$var wire 1 M$ \inst|inst3|ALT_INV_result[6]~5_sumout\ $end
$var wire 1 N$ \inst|inst3|ALT_INV_result[7]~1_sumout\ $end
$upscope $end
$upscope $end
$enddefinitions $end
#0
$dumpvars
0!
0b
1c
xd
1e
1f
1g
1h
1i
1j
0s
xN!
0O!
0P!
0Q!
0R!
0S!
0T!
0U!
0V!
0W!
0X!
0Y!
0Z!
0[!
0\!
0]!
0^!
0_!
0`!
0a!
0b!
0c!
0d!
0e!
0f!
0g!
0h!
0i!
0j!
0k!
0l!
0m!
0n!
0o!
0p!
0q!
0r!
0s!
0t!
0u!
0v!
0w!
0x!
0y!
0z!
0{!
0|!
0}!
0~!
0!"
0""
0#"
0$"
0%"
0&"
0'"
0("
0)"
0*"
0+"
0,"
0-"
0."
0/"
00"
01"
02"
03"
04"
05"
06"
07"
08"
09"
0:"
0;"
0<"
0="
0>"
0?"
0@"
0A"
0B"
0C"
0D"
0E"
0F"
0G"
0H"
0I"
0J"
0K"
0L"
0M"
0N"
0O"
1P"
1Q"
0R"
1S"
0T"
1U"
0V"
1W"
0X"
1Y"
0Z"
1["
0\"
0]"
0^"
0_"
0`"
0a"
0b"
0c"
0d"
0e"
0f"
0g"
0h"
0i"
0j"
0k"
0l"
0m"
0n"
1a#
1b#
1c#
1d#
1e#
1f#
1g#
1h#
1i#
1j#
1k#
1l#
1m#
1n#
1o#
1p#
1q#
1r#
1s#
1t#
1u#
1v#
1w#
1x#
1y#
1z#
1{#
1K$
1L$
1M$
1N$
0"
0#
0$
0%
0&
0'
0(
0)
02
03
04
05
06
07
08
09
0B
0C
0D
0E
0F
0G
0H
0I
0R
0S
0T
0U
0V
0W
0X
0Y
0k
0l
0m
0n
0o
0p
0q
0r
0t
0u
0v
0w
0x
0y
0z
0{
0|
0}
0~
0!!
0"!
0#!
0$!
0%!
0&!
0'!
0(!
0)!
0*!
0+!
0,!
0-!
0.!
0/!
00!
01!
02!
03!
04!
05!
06!
07!
08!
09!
0:!
0;!
0<!
0=!
0>!
0?!
0@!
0A!
0B!
0C!
0D!
0E!
0F!
0G!
0H!
0I!
0J!
0K!
0L!
0M!
0o"
0p"
0q"
0r"
0s"
0t"
0u"
0v"
0w"
0x"
0y"
0z"
0{"
0|"
0}"
0~"
0!#
0"#
0##
0$#
0%#
0&#
0'#
0(#
0)#
0*#
0+#
0,#
0-#
0.#
0/#
00#
01#
02#
03#
04#
05#
06#
07#
08#
09#
0:#
0;#
0<#
0=#
0>#
0?#
0@#
0A#
0B#
0C#
0D#
0E#
0F#
0G#
0H#
0I#
0J#
0K#
0L#
0M#
0N#
0O#
0P#
0Q#
0R#
0S#
0T#
0U#
0V#
0W#
0X#
0Y#
0Z#
0[#
0\#
0]#
0^#
0_#
0`#
1|#
1}#
1~#
1!$
1"$
1#$
1$$
1%$
1&$
1'$
1($
1)$
1*$
1+$
1,$
1-$
1.$
x/$
10$
11$
12$
13$
14$
15$
16$
17$
18$
19$
1:$
1;$
1<$
1=$
1>$
1?$
1@$
1A$
1B$
1C$
1D$
1E$
1F$
1G$
1H$
1I$
1J$
0*
0+
0,
0-
0.
0/
00
01
0:
0;
0<
0=
0>
0?
0@
0A
0J
0K
0L
0M
0N
0O
0P
0Q
0Z
0[
0\
0]
0^
0_
0`
0a
$end
#5000
1!
1s
1O!
1P!
#10000
0!
0s
0O!
0P!
#15000
1!
1s
1O!
1P!
#20000
0!
0s
0O!
0P!
#25000
1!
1s
1O!
1P!
#30000
0!
0s
0O!
0P!
#35000
1!
1s
1O!
1P!
#40000
0!
0s
0O!
0P!
#45000
1!
1s
1O!
1P!
#50000
0!
0s
0O!
0P!
#55000
1!
1s
1O!
1P!
#60000
0!
0s
0O!
0P!
#65000
1!
1s
1O!
1P!
#70000
0!
0s
0O!
0P!
#75000
1!
1s
1O!
1P!
#80000
0!
0s
0O!
0P!
#85000
1!
1s
1O!
1P!
#90000
0!
0s
0O!
0P!
#95000
1!
1s
1O!
1P!
#100000
0!
0s
0O!
0P!
#105000
1!
1s
1O!
1P!
#110000
0!
0s
0O!
0P!
#115000
1!
1s
1O!
1P!
#120000
0!
0s
0O!
0P!
#125000
1!
1s
1O!
1P!
#130000
0!
0s
0O!
0P!
#135000
1!
1s
1O!
1P!
#140000
0!
0s
0O!
0P!
#145000
1!
1s
1O!
1P!
#150000
0!
0s
0O!
0P!
#155000
1!
1s
1O!
1P!
#160000
0!
0s
0O!
0P!
#165000
1!
1s
1O!
1P!
#170000
0!
0s
0O!
0P!
#175000
1!
1s
1O!
1P!
#180000
0!
0s
0O!
0P!
#185000
1!
1s
1O!
1P!
#190000
0!
0s
0O!
0P!
#195000
1!
1s
1O!
1P!
#200000
0!
0s
0O!
0P!
#205000
1!
1s
1O!
1P!
#210000
0!
0s
0O!
0P!
#215000
1!
1s
1O!
1P!
#220000
0!
0s
0O!
0P!
#225000
1!
1s
1O!
1P!
#230000
0!
0s
0O!
0P!
#235000
1!
1s
1O!
1P!
#240000
0!
0s
0O!
0P!
#245000
1!
1s
1O!
1P!
#250000
0!
0s
0O!
0P!
#255000
1!
1s
1O!
1P!
#260000
0!
0s
0O!
0P!
#265000
1!
1s
1O!
1P!
#270000
0!
0s
0O!
0P!
#275000
1!
1s
1O!
1P!
#280000
0!
0s
0O!
0P!
#285000
1!
1s
1O!
1P!
#290000
0!
0s
0O!
0P!
#295000
1!
1s
1O!
1P!
#300000
0!
0s
0O!
0P!
#305000
1!
1s
1O!
1P!
#310000
0!
0s
0O!
0P!
#315000
1!
1s
1O!
1P!
#320000
0!
0s
0O!
0P!
#325000
1!
1s
1O!
1P!
#330000
0!
0s
0O!
0P!
#335000
1!
1s
1O!
1P!
#340000
0!
0s
0O!
0P!
#345000
1!
1s
1O!
1P!
#350000
0!
0s
0O!
0P!
#355000
1!
1s
1O!
1P!
#360000
0!
0s
0O!
0P!
#365000
1!
1s
1O!
1P!
#370000
0!
0s
0O!
0P!
#375000
1!
1s
1O!
1P!
#380000
0!
0s
0O!
0P!
#385000
1!
1s
1O!
1P!
#390000
0!
0s
0O!
0P!
#395000
1!
1s
1O!
1P!
#400000
0!
0s
0O!
0P!
#405000
1!
1s
1O!
1P!
#410000
0!
0s
0O!
0P!
#415000
1!
1s
1O!
1P!
#420000
0!
0s
0O!
0P!
#425000
1!
1s
1O!
1P!
#430000
0!
0s
0O!
0P!
#435000
1!
1s
1O!
1P!
#440000
0!
0s
0O!
0P!
#445000
1!
1s
1O!
1P!
#450000
0!
0s
0O!
0P!
#455000
1!
1s
1O!
1P!
#460000
0!
0s
0O!
0P!
#465000
1!
1s
1O!
1P!
#470000
0!
0s
0O!
0P!
#475000
1!
1s
1O!
1P!
#480000
0!
0s
0O!
0P!
#485000
1!
1s
1O!
1P!
#490000
0!
0s
0O!
0P!
#495000
1!
1s
1O!
1P!
#500000
0!
0s
0O!
0P!
#505000
1!
1s
1O!
1P!
#510000
0!
0s
0O!
0P!
#515000
1!
1s
1O!
1P!
#520000
0!
0s
0O!
0P!
#525000
1!
1s
1O!
1P!
#530000
0!
0s
0O!
0P!
#535000
1!
1s
1O!
1P!
#540000
0!
0s
0O!
0P!
#545000
1!
1s
1O!
1P!
#550000
0!
0s
0O!
0P!
#555000
1!
1s
1O!
1P!
#560000
0!
0s
0O!
0P!
#565000
1!
1s
1O!
1P!
#570000
0!
0s
0O!
0P!
#575000
1!
1s
1O!
1P!
#580000
0!
0s
0O!
0P!
#585000
1!
1s
1O!
1P!
#590000
0!
0s
0O!
0P!
#595000
1!
1s
1O!
1P!
#600000
0!
0s
0O!
0P!
#605000
1!
1s
1O!
1P!
